COVID-19 Prison Data by NYT
…
> fac

# A tibble: 2,639 x 16
   nyt_id  facility_name     facility_type  facility_city
   <chr>   <chr>             <chr>          <chr>
 1 F3EFE8~ Alex City Work R~ Low-security ~ Alex City
 2 5B9102~ Alabama Therapeu~ State rehabil~ Columbiana
 3 02FB16~ Bibb Correctiona~ State prison   Brent
 4 6378F6~ Birmingham Women~ State prison   Birmingham
 5 EAABF9~ Bullock Correcti~ State prison   Bessemer
 6 D19A24~ Camden prison     State prison   Camden
 7 F80A4A~ Childersburg pri~ State prison   Childersburg
 8 F119AF~ William E. Donal~ State prison   Bessemer
 9 41B5BD~ Draper Correctio~ State prison   Elmore
10 9C1D51~ Easterling Corre~ State prison   Cilo
# ... with 2,629 more rows, and 12 more variables:
#   facility_county <chr>, facility_county_fips <chr>,
#   facility_state <chr>, facility_lng <dbl>,
#   facility_lat <dbl>, latest_inmate_population <dbl>,
#   max_inmate_population_2020 <dbl>,
#   total_inmate_cases <dbl>, total_inmate_deaths <dbl>,
#   total_officer_cases <dbl>,
#   total_officer_deaths <dbl>, note <chr>
…
